Nowcasting for decision making • nowcaster
…
From the data in weekly format we mount the counts of cases by the
amount of delay. By tabling the delay amount against the data of onset
of first symptoms, to see the pattern of the delay for the cases.

data_triangle <- nowcasting_bh_no_age$data |> 
  filter(delay < 30) |> 
  arrange(delay) %>% select(-Time)

# delay_triangle<-table(data_triangle$dt_event, 
#                       data_triangle$delay, 
#                       dnn = list("Date of Onset", "Delay"))

data_triangle %>% 
  tidyr::spread(key = delay, value = Y)
#> # A tibble: 27 × 17
#>    dt_event     `0`   `1`   `2`   `3`   `4`   `5`   `6`   `7`   `8`   `9`  `10`
#>    <date>     <dbl> <dbl> <dbl> <dbl> <dbl> <dbl> <dbl> <dbl> <dbl> <dbl> <dbl>
#>  1 2019-12-28     1     2     4     5     2     2     2     0     0     0     0
#>  2 2020-01-04     0     1     4     5     5     2     0     0     0     2     0
#>  3 2020-01-11     1     5     6     4     1     2     0     0     1     0     0
#>  4 2020-01-18     2     3     6     9     2     0     3     1     0     1     0
#>  5 2020-01-25     0     6     3     2     1     1     1     0     0     2     0
#>  6 2020-02-01     1     3     5     1     3     4     2     0     1     0     0
#>  7 2020-02-08     0     5     3     5     0     3     1     4     0     0     0
#>  8 2020-02-15     0     2     7     1     1     4     2     2     1     1     0
#>  9 2020-02-22     1     6     4     7     6     7     0     2     1     1     5
#> 10 2020-02-29     2     3     5     8     9     4     1     2     2     1     1
#> # ℹ 17 more rows
#> # ℹ 5 more variables: `11` <dbl>, `12` <dbl>, `13` <dbl>, `14` <dbl>,
#> #   `15` <dbl>
…
