Structured data • nowcaster
…
library(dplyr)

data_triangle <- nowcasting_bh_no_age$data |> 
  filter(delay < 30) |> 
  arrange(delay) %>% select(-Time)

# delay_triangle<-table(data_triangle$dt_event, 
#                       data_triangle$delay, 
#                       dnn = list("Date of Onset", "Delay"))

data_triangle %>% 
  tidyr::spread(key = delay, value = Y)
#> # A tibble: 31 × 17
#>    dt_event     `0`   `1`   `2`   `3`   `4`   `5`   `6`   `7`   `8`   `9`  `10`
#>    <date>     <dbl> <dbl> <dbl> <dbl> <dbl> <dbl> <dbl> <dbl> <dbl> <dbl> <dbl>
#>  1 2021-08-23     8    70    92    68    32    32     9     1     6     3     5
#>  2 2021-08-30     6    40   135    59    25    18     4     8     2    11     4
#>  3 2021-09-06    11    88    79    41    27    12    17    10     9    10     4
#>  4 2021-09-13    12   107    81    32    13    25    15    19    16     5     5
#>  5 2021-09-20    10    93    59    41    48    11    21    29     5    16     5
#>  6 2021-09-27     6    65    81    60    13    33    24     8    16     4     1
#>  7 2021-10-04     3    56    85    43    31    32     8    10     4     3     1
#>  8 2021-10-11     3    61    58    65    35    17    22     5     4     0     1
#>  9 2021-10-18     1    44    94    60    39    33     9     7     2     3     6
#> 10 2021-10-25     1    32    84    34    49    19     7     8    11    16    10
#> # ℹ 21 more rows
#> # ℹ 5 more variables: `11` <dbl>, `12` <dbl>, `13` <dbl>, `14` <dbl>,
#> #   `15` <dbl>
…
